<svg width="14" height="14" viewBox="0 0 14 14" fill="none" xmlns="http://www.w3.org/2000/svg">
<path d="M7.00066 3.37033C4.99921 3.37033 3.37109 4.99845 3.37109 6.99989C3.37109 9.00134 4.99921 10.6295 7.00066 10.6295C9.0021 10.6295 10.6302 9.00134 10.6302 6.99989C10.6302 4.99845 9.0021 3.37033 7.00066 3.37033ZM7.00066 10.1109C5.28517 10.1109 3.8896 8.71538 3.8896 6.99989C3.8896 5.28441 5.28517 3.88884 7.00066 3.88884C8.71614 3.88884 10.1117 5.28441 10.1117 6.99989C10.1117 8.71538 8.71614 10.1109 7.00066 10.1109Z" fill="#696969"/>
<path d="M13.279 5.44434H12.7558C12.6223 4.94865 12.4261 4.47421 12.1699 4.02959L12.5396 3.65989C12.6757 3.52379 12.7507 3.34257 12.7507 3.1502C12.7507 2.95757 12.6757 2.77662 12.5396 2.64025L11.3592 1.45986C11.087 1.1879 10.6123 1.18739 10.3396 1.45986L9.96989 1.82956C9.52501 1.57367 9.05083 1.37742 8.5554 1.2439V0.720727C8.5554 0.32329 8.23211 0 7.83467 0H6.16507C5.76763 0 5.44434 0.32329 5.44434 0.720727V1.2439C4.94891 1.37742 4.47473 1.57367 4.02959 1.82982L3.65989 1.46012C3.38742 1.18739 2.91246 1.1879 2.64025 1.46012L1.45986 2.64051C1.32375 2.77662 1.24883 2.95783 1.24883 3.15046C1.24883 3.34283 1.32375 3.52379 1.45986 3.66015L1.82956 4.02985C1.57367 4.47421 1.37716 4.94865 1.2439 5.44434H0.720727C0.32329 5.44434 0 5.76763 0 6.16507V7.83441C0 8.23211 0.32329 8.5554 0.720727 8.5554H1.2439C1.37742 9.05083 1.57367 9.52501 1.82982 9.97015L1.46012 10.3398C1.32401 10.476 1.24909 10.6572 1.24909 10.8495C1.24909 11.0422 1.32401 11.2231 1.46012 11.3595L2.64051 12.5399C2.91272 12.8124 3.38768 12.8126 3.66015 12.5399L4.02985 12.1702C4.47499 12.4261 4.94917 12.6226 5.4446 12.7561V13.2793C5.4446 13.6767 5.76789 14 6.16533 14H7.83467C8.23211 14 8.5554 13.6767 8.5554 13.2793V12.7561C9.05083 12.6226 9.52501 12.4263 9.97015 12.1702L10.3398 12.5399C10.6126 12.8126 11.087 12.8121 11.3595 12.5399L12.5399 11.3595C12.676 11.2234 12.7509 11.0422 12.7509 10.8495C12.7509 10.6572 12.676 10.4762 12.5399 10.3398L12.1702 9.97015C12.4261 9.52501 12.6226 9.05083 12.7561 8.5554H13.2793C13.6767 8.5554 14 8.23211 14 7.83467V6.16507C13.9997 5.76763 13.6765 5.44434 13.279 5.44434ZM13.4812 7.83467C13.4812 7.94615 13.3905 8.03689 13.279 8.03689H12.3478L12.3011 8.23729C12.166 8.81724 11.9384 9.36764 11.6237 9.87345L11.5148 10.0482L12.173 10.7064C12.2521 10.7855 12.2521 10.9138 12.173 10.9926L10.9926 12.173C10.9138 12.2518 10.7855 12.2524 10.7064 12.173L10.0482 11.5148L9.87345 11.6237C9.3679 11.9384 8.8175 12.1663 8.23729 12.3011L8.03689 12.3478V13.279C8.03689 13.3905 7.94615 13.4812 7.83467 13.4812H6.16507C6.05359 13.4812 5.96285 13.3905 5.96285 13.279V12.3478L5.76245 12.3011C5.1825 12.166 4.6321 11.9384 4.12629 11.6237L3.95156 11.5148L3.29331 12.173C3.21398 12.2524 3.08565 12.2518 3.00709 12.173L1.82671 10.9926C1.74763 10.9136 1.74763 10.7852 1.82671 10.7064L2.48495 10.0482L2.37607 9.87345C2.06133 9.3679 1.83345 8.8175 1.69864 8.23729L1.65197 8.03689H0.720727C0.609248 8.03689 0.518509 7.94615 0.518509 7.83467V6.16507C0.518509 6.05359 0.609248 5.96285 0.720727 5.96285H1.65197L1.69864 5.76245C1.83371 5.18224 2.06133 4.63184 2.37607 4.12629L2.48495 3.95156L1.82671 3.29331C1.74763 3.21424 1.74763 3.08591 1.82671 3.00709L3.00709 1.82671C3.08591 1.74789 3.21424 1.74738 3.29331 1.82671L3.95156 2.48495L4.12629 2.37607C4.63184 2.06133 5.18224 1.83345 5.76245 1.69864L5.96285 1.65197V0.720727C5.96285 0.609248 6.05359 0.518509 6.16507 0.518509H7.83441C7.94615 0.518509 8.03689 0.609248 8.03689 0.720727V1.65197L8.23729 1.69864C8.81724 1.83371 9.36764 2.06133 9.87345 2.37607L10.0482 2.48495L10.7064 1.82671C10.7858 1.74738 10.9141 1.74789 10.9926 1.82671L12.173 3.00709C12.2521 3.08616 12.2521 3.2145 12.173 3.29331L11.5148 3.95156L11.6237 4.12629C11.9384 4.63158 12.1663 5.18198 12.3011 5.76245L12.3478 5.96285H13.279C13.3905 5.96285 13.4812 6.05359 13.4812 6.16507V7.83467Z" fill="#696969"/>
<path d="M6.99879 4.40735C5.56927 4.40735 4.40625 5.57036 4.40625 6.99989C4.40625 8.42942 5.56927 9.59244 6.99879 9.59244C8.42832 9.59244 9.59134 8.42942 9.59134 6.99989C9.59134 5.57036 8.42832 4.40735 6.99879 4.40735ZM6.99879 9.07393C5.85522 9.07393 4.92476 8.14346 4.92476 6.99989C4.92476 5.85632 5.85522 4.92586 6.99879 4.92586C8.14237 4.92586 9.07283 5.85632 9.07283 6.99989C9.07283 8.14346 8.14237 9.07393 6.99879 9.07393Z" fill="#696969"/>
</svg>
