<svg width="28" height="28" viewBox="0 0 28 28" fill="none" xmlns="http://www.w3.org/2000/svg">
<path d="M13.9999 0.764862C6.69027 0.764862 0.764648 6.69048 0.764648 14.0002C0.764648 21.3098 6.69027 27.2355 13.9999 27.2355C21.3096 27.2355 27.2352 21.3098 27.2352 14.0002C27.2352 6.69048 21.3096 0.764862 13.9999 0.764862ZM19.0493 7.50505L17.2187 7.50586C15.7832 7.50586 15.5056 8.188 15.5056 9.18887V11.3959H18.9288L18.9271 14.8526H15.5059V23.7235H11.9354V14.8526H8.95063V11.3959H11.9354V8.84658C11.9354 5.88811 13.743 4.27685 16.3819 4.27685L19.0495 4.28091V7.50505H19.0493Z" fill="#4267B2"/>
</svg>
