<svg width="46" height="46" viewBox="0 0 46 46" fill="none" xmlns="http://www.w3.org/2000/svg">
<path d="M0.27687 25.7489C0.316423 26.2631 0.395529 26.7773 0.514187 27.2519C0.55374 27.4497 0.593293 27.6475 0.632846 27.8452C0.909716 29.19 1.30524 30.4953 1.85899 31.7214C1.93809 31.9192 2.0172 32.1169 2.0963 32.2752C2.29407 32.7102 2.49183 33.1453 2.72915 33.5804C2.84781 33.7782 2.92691 33.9759 3.04557 34.1737C3.28289 34.6088 3.55976 35.0438 3.83663 35.4789C3.91574 35.5976 3.99484 35.7558 4.1135 35.8745C4.15305 35.914 4.15305 35.9536 4.19261 35.9931C4.23216 36.0327 4.27171 36.0722 4.27171 36.1118C4.90456 37.0215 5.61651 37.8917 6.40757 38.7223C6.40757 38.7223 6.44712 38.7618 6.44712 38.8014C6.48667 38.8805 6.56578 38.92 6.64488 38.9991C6.80309 39.1573 6.96131 39.3156 7.11952 39.4738C7.19862 39.5133 7.23818 39.5924 7.31728 39.6715L7.35683 39.7111C8.18745 40.5021 9.09716 41.2537 10.0464 41.9261C10.086 41.9656 10.1255 42.0052 10.1651 42.0052C10.7584 42.4007 11.3912 42.7567 11.9845 43.1126C12.1032 43.1917 12.2614 43.2709 12.3801 43.3104C12.8547 43.5873 13.3689 43.8246 13.8831 44.0224C14.0413 44.1015 14.1599 44.141 14.3181 44.2201C15.5838 44.7343 16.9286 45.1694 18.2734 45.4463C18.4316 45.4858 18.6294 45.5254 18.7876 45.5649C19.3018 45.644 19.816 45.7627 20.3697 45.8022C20.5675 45.8418 20.7653 45.8418 20.963 45.8813C21.675 45.9604 22.3474 46 23.0593 46C27.8452 46 32.2752 44.5365 35.914 42.0447C35.914 42.0447 35.9536 42.0447 35.9536 42.0052C36.5073 41.6492 37.0215 41.2537 37.5357 40.8186C37.6148 40.7395 37.6939 40.6999 37.773 40.6208C38.129 40.3044 38.485 39.988 38.8409 39.632L38.9991 39.4738C39.1574 39.3156 39.3156 39.1573 39.4738 38.9991L39.6715 38.8014C39.8693 38.6036 40.0275 38.3663 40.2253 38.1685C40.423 37.9312 40.6604 37.7334 40.8186 37.4566C41.2141 36.9819 41.5701 36.5073 41.9261 35.9931C41.9261 35.9931 41.9261 35.9536 41.9656 35.9536C44.497 32.2751 46 27.8057 46 22.9802C46 22.2683 45.9604 21.5563 45.8813 20.8839C45.8813 20.6862 45.8418 20.4884 45.8022 20.2906C45.7231 19.7764 45.644 19.2227 45.5649 18.7085C45.5254 18.5503 45.4858 18.3525 45.4463 18.1943C45.1694 16.8495 44.7343 15.5047 44.2201 14.239C44.141 14.0808 44.1015 13.9622 44.0224 13.804C43.785 13.2898 43.5477 12.8151 43.3104 12.3009C43.2313 12.1823 43.1917 12.0241 43.1126 11.9054C42.7567 11.2726 42.4007 10.6793 42.0052 10.086C41.9656 10.0464 41.9261 10.0069 41.8865 9.96733C41.6096 9.5718 41.2932 9.17627 41.0163 8.78074C41.0163 8.74119 41.0163 8.74119 40.9768 8.70163C40.9372 8.66208 40.8977 8.62253 40.8977 8.58298C39.8693 7.27773 38.6827 6.1307 37.3775 5.06277C37.3379 5.02322 37.2984 4.98366 37.2588 4.98366C37.2588 4.98366 37.2193 4.98366 37.1797 4.94411C36.8237 4.66724 36.4678 4.39037 36.1118 4.15305C36.0722 4.1135 36.0327 4.07395 35.9931 4.07395C35.9536 4.03439 35.914 4.03439 35.8745 3.99484C35.7558 3.91573 35.5976 3.83663 35.4789 3.75752C35.0439 3.48065 34.6088 3.20378 34.1341 2.96647C33.9364 2.84781 33.7386 2.7687 33.5408 2.65004C33.1058 2.41273 32.6707 2.21496 32.2356 2.0172C32.0378 1.93809 31.8796 1.85899 31.6819 1.77988C30.4162 1.26569 29.1109 0.870163 27.7661 0.55374C27.5684 0.514187 27.3706 0.474635 27.1728 0.435082C26.6586 0.355976 26.1445 0.27687 25.6303 0.197764C25.4325 0.158212 25.2347 0.158211 24.9974 0.118659C24.2855 0.0395528 23.6131 7.54411e-08 22.9011 7.54411e-08C18.0757 7.54411e-08 13.6062 1.50301 9.92777 4.03439C9.92777 4.03439 9.88822 4.03439 9.88822 4.07395C9.45314 4.35082 9.05761 4.66724 8.66208 4.98366C8.62253 5.02322 8.58297 5.02322 8.58297 5.06277C7.27773 6.09114 6.1307 7.27773 5.06277 8.58298C5.02322 8.62253 4.98366 8.66208 4.98366 8.66208C4.62769 9.09716 4.27171 9.53224 3.95529 10.0069V10.0464C1.46346 13.7248 -7.54411e-08 18.1548 -7.54411e-08 22.9407C-7.54411e-08 23.6526 0.0395529 24.3646 0.118659 25.037C0.237317 25.3138 0.237317 25.5512 0.27687 25.7489ZM10.9166 38.5245C10.4024 38.0894 9.88822 37.6543 9.37403 37.2193L8.85985 36.7051C8.42476 36.27 7.98968 35.7954 7.59415 35.2812L13.7644 29.1109C14.6346 30.4162 15.742 31.5236 17.0473 32.3543L10.9166 38.5245ZM15.1883 23.0198C15.1883 22.0705 15.3861 21.1608 15.6629 20.3302C15.742 20.0533 15.8607 19.816 15.9794 19.5787C16.098 19.3414 16.2167 19.104 16.3749 18.8667C17.2846 17.4428 18.5899 16.3749 20.172 15.742C21.0421 15.3861 21.9914 15.2279 22.9802 15.2279C23.2175 15.2279 23.4944 15.2279 23.7317 15.2674C23.8899 15.2674 24.0482 15.307 24.2064 15.3465C24.2855 15.3465 24.3646 15.3861 24.4437 15.3861C24.6414 15.4256 24.8788 15.4652 25.0765 15.5443C25.0765 15.5443 25.1161 15.5443 25.1556 15.5443C25.393 15.6234 25.5907 15.6629 25.828 15.7816C27.9639 16.6122 29.6251 18.2734 30.4162 20.4093C30.4953 20.6071 30.5744 20.8444 30.6139 21.0421V21.0817C30.6535 21.2794 30.693 21.4772 30.7326 21.675C30.7326 21.7541 30.7721 21.8332 30.7721 21.9123C30.8117 22.0705 30.8117 22.2287 30.8512 22.3474C30.8908 22.5847 30.8908 22.822 30.8908 23.0593C30.8908 24.0482 30.693 24.9974 30.3766 25.8676C29.7833 27.4497 28.6758 28.7945 27.2519 29.6647C27.0146 29.8229 26.7773 29.9415 26.54 30.0602C26.3027 30.1788 26.0258 30.2975 25.7885 30.3766C24.9579 30.693 24.0481 30.8512 23.0989 30.8512C22.8616 30.8512 22.6242 30.8512 22.3869 30.8117C22.2287 30.8117 22.1101 30.7721 21.9518 30.7326C21.8727 30.7326 21.7936 30.693 21.7145 30.693C21.5168 30.6535 21.319 30.6139 21.1212 30.5744H21.0817C20.8839 30.4953 20.6466 30.4557 20.4488 30.3766C18.313 29.5856 16.6122 27.9243 15.8212 25.7885C15.742 25.5512 15.6629 25.3534 15.5838 25.1161V25.0765C15.5443 24.8788 15.4652 24.681 15.4256 24.4437C15.4256 24.3646 15.3861 24.2855 15.3861 24.2064C15.3465 24.0482 15.3465 23.8899 15.307 23.7317C15.1883 23.534 15.1883 23.2571 15.1883 23.0198ZM23.0593 42.7567C22.466 42.7567 21.8332 42.7171 21.2399 42.6776C21.1212 42.6776 21.0026 42.638 20.8839 42.638C20.2906 42.5589 19.7369 42.4798 19.1831 42.3611C19.104 42.3611 19.0249 42.3216 18.9063 42.3216C18.3525 42.2029 17.8383 42.0843 17.2846 41.9261C17.2451 41.9261 17.2055 41.8865 17.1264 41.8865C16.5727 41.7283 16.0189 41.491 15.4652 41.2932C15.3861 41.2537 15.307 41.2141 15.2279 41.1745C14.6741 40.9372 14.1599 40.6999 13.6062 40.3835L20.2115 33.7782C20.2511 33.7782 20.2906 33.7782 20.3302 33.7782C20.6862 33.8573 21.0817 33.9364 21.4377 34.0155C21.5168 34.0155 21.6354 34.055 21.7145 34.055C22.1496 34.0946 22.5847 34.1341 23.0198 34.1341C24.0086 34.1341 24.9183 34.0155 25.828 33.7782L32.4334 40.3835C29.6647 41.8865 26.4609 42.7567 23.0593 42.7567ZM38.4058 35.3998C38.1685 35.6767 37.9312 35.9536 37.6939 36.1909C37.5357 36.3491 37.3775 36.5469 37.2193 36.7051L36.7446 37.1797C36.4282 37.4961 36.1118 37.8125 35.7558 38.0894C35.6767 38.1685 35.558 38.2476 35.4789 38.3267C35.3998 38.4058 35.3207 38.4454 35.2416 38.5245L29.0318 32.3543C29.0318 32.3543 29.0714 32.3543 29.0714 32.3147C29.3482 32.1169 29.6251 31.9192 29.902 31.7214C29.9415 31.6819 29.9811 31.6819 29.9811 31.6423C30.8908 30.9304 31.6423 30.0602 32.3147 29.1109L38.485 35.2812C38.4454 35.3207 38.4454 35.3603 38.4058 35.3998ZM40.3835 13.6062C40.6604 14.1204 40.9372 14.6741 41.1745 15.2279C41.2141 15.307 41.2537 15.3861 41.2932 15.4652C41.5305 16.0189 41.7283 16.5727 41.8865 17.1264C41.8865 17.1659 41.9261 17.2055 41.9261 17.2846C42.0843 17.7988 42.2425 18.3525 42.3611 18.9063C42.3611 18.9854 42.4007 19.0645 42.4007 19.1831C42.5193 19.7369 42.5985 20.3302 42.6776 20.8839C42.6776 21.0026 42.7171 21.1212 42.7171 21.2399C42.7567 21.8332 42.7962 22.4265 42.7962 23.0593C42.7962 26.5004 41.8865 29.7438 40.3439 32.5916L33.7386 25.9862C34.0155 25.037 34.1341 24.0482 34.1341 23.0198C34.1341 22.5847 34.0946 22.1101 34.055 21.675C34.055 21.5959 34.0155 21.5168 34.0155 21.4377C33.9759 21.0421 33.8968 20.6862 33.7782 20.2906C33.7782 20.2511 33.7782 20.2115 33.7782 20.2115L40.3835 13.6062ZM35.3207 7.59415L38.485 10.7584C38.5245 10.7979 38.5245 10.7979 38.5641 10.8375L32.3938 17.0473C31.5632 15.742 30.4557 14.6346 29.1505 13.7644L35.3207 7.59415ZM23.0593 3.28289C23.6526 3.28289 24.2855 3.32244 24.8788 3.36199C24.9974 3.36199 25.1161 3.40155 25.2347 3.40155C25.828 3.48065 26.3818 3.55976 26.9355 3.67842C27.0146 3.67842 27.1333 3.71797 27.2124 3.75752C27.7266 3.87618 28.2012 3.99484 28.7154 4.15305C28.7945 4.19261 28.9132 4.19261 28.9923 4.23216C29.546 4.39037 30.0602 4.58813 30.5744 4.82545C30.693 4.865 30.8117 4.94411 30.9304 4.98366C31.3654 5.18143 31.8401 5.37919 32.2752 5.61651C32.3543 5.65606 32.4334 5.69561 32.5125 5.73517C32.552 5.73517 32.552 5.77472 32.5916 5.77472L26.0258 12.3405C25.9862 12.3405 25.9467 12.3405 25.9071 12.3009C25.5116 12.1823 25.1161 12.1032 24.7205 12.0636C24.6019 12.0636 24.5228 12.0241 24.4041 12.0241C23.969 11.9845 23.4944 11.945 23.0198 11.945C21.9914 11.945 21.0026 12.1032 20.0533 12.3405L13.5271 5.77472C16.3749 4.19261 19.6182 3.28289 23.0593 3.28289ZM7.63371 10.7979L10.8375 7.59415L17.0077 13.7644C16.0585 14.3972 15.1883 15.1883 14.4764 16.098C14.4368 16.1376 14.4368 16.1771 14.3972 16.1771C14.1995 16.454 14.0017 16.7309 13.804 17.0077C13.804 17.0077 13.804 17.0473 13.7644 17.0473L7.5546 10.877C7.59415 10.8375 7.59415 10.7979 7.63371 10.7979ZM5.73517 13.6062L12.3405 20.2115C12.1032 21.1212 11.9845 22.031 11.9845 23.0198C11.9845 23.4944 12.0241 23.9295 12.0636 24.4041C12.0636 24.5228 12.1032 24.6019 12.1032 24.7206C12.1823 25.1161 12.2614 25.5116 12.3405 25.9071C12.3405 25.9467 12.3405 25.9862 12.3801 26.0258L5.81427 32.552C5.81427 32.5125 5.77472 32.5125 5.77472 32.4729C5.73517 32.3938 5.69561 32.3147 5.65606 32.196C5.41874 31.761 5.22098 31.3259 5.02322 30.8908C4.98366 30.7721 4.90456 30.6535 4.865 30.5348C4.66724 30.0206 4.46948 29.5064 4.27171 28.9527C4.23216 28.834 4.23216 28.7549 4.19261 28.6363C4.03439 28.1616 3.91574 27.6475 3.79708 27.1728C3.75752 27.0937 3.75752 26.9751 3.71797 26.896C3.59931 26.3422 3.52021 25.7885 3.4411 25.1952C3.4411 25.0765 3.40155 24.9579 3.40155 24.7997C3.36199 24.2064 3.32244 23.6131 3.32244 22.9802C3.32244 19.6182 4.19261 16.4144 5.73517 13.6062Z" fill="#004F29"/>
</svg>
